[gd_scene format=2]

[node name="Princess" type="YSort"]

[node name="Node2D" type="Node2D" parent="."]

[node name="ColorRect" type="ColorRect" parent="Node2D"]
margin_left = -17.5115
margin_top = -47.3289
margin_right = 22.4885
margin_bottom = 30.6711
color = Color( 0.823529, 0.435294, 0.435294, 1 )
__meta__ = {
"_edit_use_anchors_": false
}
